LIB_VOIE,Total,Binôme
DOUDEAUVILLE,77,
CHAPELLE,71,
MYRHA,61,
MARX DORMOY + AFFRE,60,
POISSONNIERS + CAPLAT,59,
GOUTTE D’OR + ERNESTINE + JEAN FRANCOIS LEPINE ,60,
STEPHENSON + CAVE + SAINT LUC,60,
MARCADET + JESSAINT + LAGHOUAT,58,
ORDENER + TOMBOUCTOU,47,
LEON + POLONCEAU,55,
SUEZ + CHARBONNIERE,49,
CHARBONNIERE + BARBES + CHARTRES,47,
PANAMA + GARDES,35,
JEAN ROBERT + CHARTRES,38,
